[
  {
    "elements": [
      {
        "id": "ibcg2-mobile-smoke-test-script;to-verify-user-is-able-to-login-to-ibcg2-mobile-successfully",
        "keyword": "Scenario",
        "line": 4,
        "name": "To verify user is able to login to IBCG2 mobile successfully",
        "steps": [
          {
            "arguments": [],
            "keyword": "Given ",
            "name": "User try to login to IBCG2 mobile via valid credentials",
            "result": {
              "status": "passed",
              "duration": 67072298575
            },
            "line": 5,
            "match": {
              "location": "smoke.js:23"
            }
          },
          {
            "arguments": [],
            "keyword": "Then ",
            "name": "User should get logged in successfully and land on mobile landing page",
            "result": {
              "status": "passed",
              "duration": 27043070278
            },
            "line": 6,
            "match": {
              "location": "smoke.js:69"
            }
          }
        ],
        "tags": [
          {
            "name": "@Smoke",
            "line": 3
          },
          {
            "name": "@IBCG2Mobile",
            "line": 3
          }
        ],
        "type": "scenario"
      },
      {
        "id": "ibcg2-mobile-smoke-test-script;to-verify-successful-sso-to-hb",
        "keyword": "Scenario",
        "line": 9,
        "name": "To verify successful SSO to HB",
        "steps": [
          {
            "arguments": [],
            "keyword": "Given ",
            "name": "User should get logged in successfully and land on mobile landing page",
            "result": {
              "status": "passed",
              "duration": 662189189
            },
            "line": 10,
            "match": {
              "location": "smoke.js:69"
            }
          },
          {
            "arguments": [],
            "keyword": "Then ",
            "name": "Verify User is able to SSO to HB successfully",
            "result": {
              "status": "passed",
              "duration": 19941127154
            },
            "line": 11,
            "match": {
              "location": "smoke.js:95"
            }
          }
        ],
        "tags": [
          {
            "name": "@Smoke",
            "line": 8
          },
          {
            "name": "@IBCG2Mobile",
            "line": 8
          }
        ],
        "type": "scenario"
      },
      {
        "id": "ibcg2-mobile-smoke-test-script;to-verify-your-profile-link",
        "keyword": "Scenario",
        "line": 14,
        "name": "To verify Your Profile link",
        "steps": [
          {
            "arguments": [],
            "keyword": "When ",
            "name": "User clicks on Your Profile button",
            "result": {
              "status": "passed",
              "duration": 3261979107
            },
            "line": 15,
            "match": {
              "location": "smoke.js:122"
            }
          },
          {
            "arguments": [],
            "keyword": "Then ",
            "name": "Verify User gets redirected to Your Profile Page",
            "result": {
              "status": "passed",
              "duration": 1647958610
            },
            "line": 16,
            "match": {
              "location": "smoke.js:130"
            }
          }
        ],
        "tags": [
          {
            "name": "@Smoke",
            "line": 13
          },
          {
            "name": "@IBCG2Mobile",
            "line": 13
          }
        ],
        "type": "scenario"
      },
      {
        "id": "ibcg2-mobile-smoke-test-script;to-verify-help-link",
        "keyword": "Scenario",
        "line": 19,
        "name": "To verify Help link",
        "steps": [
          {
            "arguments": [],
            "keyword": "When ",
            "name": "User clicks on Help button",
            "result": {
              "status": "passed",
              "duration": 2879320137
            },
            "line": 20,
            "match": {
              "location": "smoke.js:141"
            }
          },
          {
            "arguments": [],
            "keyword": "Then ",
            "name": "Verify User gets redirected to Help Page",
            "result": {
              "status": "passed",
              "duration": 7357451016
            },
            "line": 21,
            "match": {
              "location": "smoke.js:149"
            }
          }
        ],
        "tags": [
          {
            "name": "@Smoke",
            "line": 18
          },
          {
            "name": "@IBCG2Mobile",
            "line": 18
          }
        ],
        "type": "scenario"
      },
      {
        "id": "ibcg2-mobile-smoke-test-script;to-verify-contact-us-link",
        "keyword": "Scenario",
        "line": 24,
        "name": "To verify Contact Us link",
        "steps": [
          {
            "arguments": [],
            "keyword": "When ",
            "name": "User clicks on Contact Us button",
            "result": {
              "status": "passed",
              "duration": 3743255079
            },
            "line": 25,
            "match": {
              "location": "smoke.js:159"
            }
          },
          {
            "arguments": [],
            "keyword": "Then ",
            "name": "Verify User gets redirected to Contact Us Page",
            "result": {
              "status": "passed",
              "duration": 3762748897
            },
            "line": 26,
            "match": {
              "location": "smoke.js:167"
            }
          }
        ],
        "tags": [
          {
            "name": "@Smoke",
            "line": 23
          },
          {
            "name": "@IBCG2Mobile",
            "line": 23
          }
        ],
        "type": "scenario"
      },
      {
        "id": "ibcg2-mobile-smoke-test-script;to-verify-privacy-link",
        "keyword": "Scenario",
        "line": 29,
        "name": "To verify Privacy link",
        "steps": [
          {
            "arguments": [],
            "keyword": "When ",
            "name": "User clicks on Privacy link",
            "result": {
              "status": "passed",
              "duration": 4321525222
            },
            "line": 30,
            "match": {
              "location": "smoke.js:177"
            }
          },
          {
            "arguments": [],
            "keyword": "Then ",
            "name": "Verify User gets redirected to Privacy Policy Page",
            "result": {
              "status": "passed",
              "duration": 4211986998
            },
            "line": 31,
            "match": {
              "location": "smoke.js:185"
            }
          }
        ],
        "tags": [
          {
            "name": "@Smoke",
            "line": 28
          },
          {
            "name": "@IBCG2Mobile",
            "line": 28
          }
        ],
        "type": "scenario"
      },
      {
        "id": "ibcg2-mobile-smoke-test-script;to-verify-terms-link",
        "keyword": "Scenario",
        "line": 34,
        "name": "To verify Terms link",
        "steps": [
          {
            "arguments": [],
            "keyword": "When ",
            "name": "User clicks on Terms link",
            "result": {
              "status": "passed",
              "duration": 3784913726
            },
            "line": 35,
            "match": {
              "location": "smoke.js:195"
            }
          },
          {
            "arguments": [],
            "keyword": "Then ",
            "name": "Verify User gets redirected to Terms of use Page",
            "result": {
              "status": "passed",
              "duration": 4930201744
            },
            "line": 36,
            "match": {
              "location": "smoke.js:203"
            }
          }
        ],
        "tags": [
          {
            "name": "@Smoke",
            "line": 33
          },
          {
            "name": "@IBCG2Mobile",
            "line": 33
          }
        ],
        "type": "scenario"
      },
      {
        "id": "ibcg2-mobile-smoke-test-script;to-verify-user-is-able-to-logout-successfully-from-ibcg2-mobile",
        "keyword": "Scenario",
        "line": 40,
        "name": "To verify user is able to logout successfully from IBCG2 mobile",
        "steps": [
          {
            "arguments": [],
            "keyword": "When ",
            "name": "User clicks on Logout button",
            "result": {
              "status": "passed",
              "duration": 6331988283
            },
            "line": 41,
            "match": {
              "location": "smoke.js:239"
            }
          },
          {
            "arguments": [],
            "keyword": "Then ",
            "name": "User should able to logout successfully from IBCG2 mobile",
            "result": {
              "status": "passed",
              "duration": 2875825559
            },
            "line": 42,
            "match": {
              "location": "smoke.js:250"
            }
          }
        ],
        "tags": [
          {
            "name": "@Smoke",
            "line": 39
          },
          {
            "name": "@IBCG2Mobile",
            "line": 39
          }
        ],
        "type": "scenario"
      },
      {
        "id": "ibcg2-mobile-smoke-test-script;to-verify-full-website-link",
        "keyword": "Scenario",
        "line": 45,
        "name": "To verify Full Website link",
        "steps": [
          {
            "arguments": [],
            "keyword": "When ",
            "name": "User clicks on Full Website link",
            "result": {
              "status": "passed",
              "duration": 8398064559
            },
            "line": 46,
            "match": {
              "location": "smoke.js:213"
            }
          },
          {
            "arguments": [],
            "keyword": "Then ",
            "name": "Verify User gets redirected to desktop IBCG2 Page",
            "result": {
              "status": "passed",
              "duration": 1933366671
            },
            "line": 47,
            "match": {
              "location": "smoke.js:221"
            }
          }
        ],
        "tags": [
          {
            "name": "@Smoke",
            "line": 44
          },
          {
            "name": "@IBCG2Mobile",
            "line": 44
          }
        ],
        "type": "scenario"
      }
    ],
    "id": "ibcg2-mobile-smoke-test-script",
    "keyword": "Feature",
    "line": 1,
    "name": "IBCG2 Mobile smoke test script",
    "tags": [],
    "uri": "C:\\IBCG2_Mobile_Smoke_Automation\\features\\IBCG2 Mobile- Smoke features\\IBCG2 Mobile smoke.feature"
  },
  {
    "elements": [
      {
        "id": "mbc(auth)-mobile-smoke-test-script;to-verify-user-is-able-to-login-to-mbc(auth)-mobile-successfully",
        "keyword": "Scenario",
        "line": 4,
        "name": "To verify user is able to login to MBC(auth) mobile successfully",
        "steps": [
          {
            "arguments": [],
            "keyword": "Given ",
            "name": "User try to login to MBCauth mobile via valid credentials",
            "result": {
              "status": "passed",
              "duration": 12574509330
            },
            "line": 5,
            "match": {
              "location": "smoke.js:23"
            }
          },
          {
            "arguments": [],
            "keyword": "Then ",
            "name": "User should get logged in successfully and land on mbc mobile dashboard page",
            "result": {
              "status": "passed",
              "duration": 22234383421
            },
            "line": 6,
            "match": {
              "location": "smoke.js:65"
            }
          }
        ],
        "tags": [
          {
            "name": "@Smoke",
            "line": 3
          },
          {
            "name": "@MBCMobile",
            "line": 3
          }
        ],
        "type": "scenario"
      },
      {
        "id": "mbc(auth)-mobile-smoke-test-script;to-verify-your-profile-(security-settings)-page-for-mbc-ppt",
        "keyword": "Scenario",
        "line": 9,
        "name": "To verify Your Profile (Security Settings) page for MBC ppt",
        "steps": [
          {
            "arguments": [],
            "keyword": "When ",
            "name": "User clicks on security settings link",
            "result": {
              "status": "failed",
              "duration": 103867041202,
              "error_message": "Timed out while waiting for element <Section[name=DashboardPage],Element[name=@SecuritySettingsLink2]> to be present for 40000 milliseconds. - Expected \"visible\" but got: \"not found\"\n    at C:\\IBCG2_Mobile_Smoke_Automation\\features\\step_definitions\\MBC Mobile smoke.js:83:27\n    at initializePageObjects (C:\\IBCG2_Mobile_Smoke_Automation\\features\\step_definitions\\MBC Mobile smoke.js:18:5)\n    at Object.<anonymous> (C:\\IBCG2_Mobile_Smoke_Automation\\features\\step_definitions\\MBC Mobile smoke.js:79:9)\n    at next (native)\n    at next (native)"
            },
            "line": 10,
            "match": {
              "location": "smoke.js:77"
            }
          },
          {
            "arguments": [],
            "keyword": "Then ",
            "name": "Verify User gets redirected to Your Profile Page for MBC ppt",
            "result": {
              "status": "skipped"
            },
            "line": 11,
            "match": {
              "location": "smoke.js:87"
            }
          }
        ],
        "tags": [
          {
            "name": "@Smoke",
            "line": 8
          },
          {
            "name": "@MBCMobile",
            "line": 8
          }
        ],
        "type": "scenario"
      },
      {
        "id": "mbc(auth)-mobile-smoke-test-script;to-verify-user-is-able-to-logout-successfully-from-mbc-mobile",
        "keyword": "Scenario",
        "line": 14,
        "name": "To verify user is able to logout successfully from MBC mobile",
        "steps": [
          {
            "arguments": [],
            "keyword": "When ",
            "name": "User clicks on Logout link on MBC dashboard",
            "result": {
              "status": "passed",
              "duration": 11891192875
            },
            "line": 15,
            "match": {
              "location": "smoke.js:106"
            }
          },
          {
            "arguments": [],
            "keyword": "Then ",
            "name": "User should able to logout successfully from MBC mobile",
            "result": {
              "status": "passed",
              "duration": 3472655323
            },
            "line": 16,
            "match": {
              "location": "smoke.js:118"
            }
          }
        ],
        "tags": [
          {
            "name": "@Smoke",
            "line": 13
          },
          {
            "name": "@MBCMobile",
            "line": 13
          }
        ],
        "type": "scenario"
      }
    ],
    "id": "mbc(auth)-mobile-smoke-test-script",
    "keyword": "Feature",
    "line": 1,
    "name": "MBC(Auth) Mobile smoke test script",
    "tags": [],
    "uri": "C:\\IBCG2_Mobile_Smoke_Automation\\features\\IBCG2 Mobile- Smoke features\\MBCauth Mobile smoke.feature"
  }
]